(kicad_symbol_lib (version 20211014) (generator kicad_symbol_editor)
  (symbol "AT89S51" (in_bom yes) (on_board yes)
    (property "Reference" "U" (id 0) (at -8.89 8.89 0)
      (effects (font (size 1.27 1.27)))
    )
    (property "Value" "AT89S51" (id 1) (at -5.08 6.35 0)
      (effects (font (size 1.27 1.27)))
    )
    (property "Footprint" "" (id 2) (at 8.89 1.27 0)
      (effects (font (size 1.27 1.27)) hide)
    )
    (property "Datasheet" "" (id 3) (at 8.89 1.27 0)
      (effects (font (size 1.27 1.27)) hide)
    )
    (property "ki_locked" "" (id 4) (at 0 0 0)
      (effects (font (size 1.27 1.27)))
    )
    (property "ki_description" "uControlador atmel basado en el 8051" (id 5) (at 0 0 0)
      (effects (font (size 1.27 1.27)) hide)
    )
    (symbol "AT89S51_1_1"
      (rectangle (start 5.08 5.08) (end -8.89 -17.78)
        (stroke (width 0) (type default) (color 0 0 0 0))
        (fill (type background))
      )
      (pin bidirectional line (at 7.62 -15.24 180) (length 2.54)
        (name "P0.7_(AD7)" (effects (font (size 1.27 1.27))))
        (number "30" (effects (font (size 1.27 1.27))))
      )
      (pin bidirectional line (at 7.62 -12.7 180) (length 2.54)
        (name "P0.6_(AD6)" (effects (font (size 1.27 1.27))))
        (number "31" (effects (font (size 1.27 1.27))))
      )
      (pin bidirectional line (at 7.62 -10.16 180) (length 2.54)
        (name "P0.5_(AD5)" (effects (font (size 1.27 1.27))))
        (number "32" (effects (font (size 1.27 1.27))))
      )
      (pin bidirectional line (at 7.62 -7.62 180) (length 2.54)
        (name "P0.4_(AD4)" (effects (font (size 1.27 1.27))))
        (number "33" (effects (font (size 1.27 1.27))))
      )
      (pin bidirectional line (at 7.62 -5.08 180) (length 2.54)
        (name "P0.3_(AD3)" (effects (font (size 1.27 1.27))))
        (number "34" (effects (font (size 1.27 1.27))))
      )
      (pin bidirectional line (at 7.62 -2.54 180) (length 2.54)
        (name "P0.2_(AD2)" (effects (font (size 1.27 1.27))))
        (number "35" (effects (font (size 1.27 1.27))))
      )
      (pin bidirectional line (at 7.62 0 180) (length 2.54)
        (name "P0.1_(AD1)" (effects (font (size 1.27 1.27))))
        (number "36" (effects (font (size 1.27 1.27))))
      )
      (pin bidirectional line (at 7.62 2.54 180) (length 2.54)
        (name "P0.0_(AD0)" (effects (font (size 1.27 1.27))))
        (number "37" (effects (font (size 1.27 1.27))))
      )
    )
    (symbol "AT89S51_2_1"
      (rectangle (start 5.08 5.08) (end -8.89 -17.78)
        (stroke (width 0) (type default) (color 0 0 0 0))
        (fill (type background))
      )
      (pin bidirectional line (at 7.62 -10.16 180) (length 2.54)
        (name "P1.5_(MOSI)" (effects (font (size 1.27 1.27))))
        (number "1" (effects (font (size 1.27 1.27))))
      )
      (pin bidirectional line (at 7.62 -12.7 180) (length 2.54)
        (name "P1.6_(MISO)" (effects (font (size 1.27 1.27))))
        (number "2" (effects (font (size 1.27 1.27))))
      )
      (pin bidirectional line (at 7.62 -15.24 180) (length 2.54)
        (name "P1.7_(SCK)" (effects (font (size 1.27 1.27))))
        (number "3" (effects (font (size 1.27 1.27))))
      )
      (pin bidirectional line (at 7.62 2.54 180) (length 2.54)
        (name "P1.0" (effects (font (size 1.27 1.27))))
        (number "40" (effects (font (size 1.27 1.27))))
      )
      (pin bidirectional line (at 7.62 0 180) (length 2.54)
        (name "P1.1" (effects (font (size 1.27 1.27))))
        (number "41" (effects (font (size 1.27 1.27))))
      )
      (pin bidirectional line (at 7.62 -2.54 180) (length 2.54)
        (name "P1.2" (effects (font (size 1.27 1.27))))
        (number "42" (effects (font (size 1.27 1.27))))
      )
      (pin bidirectional line (at 7.62 -5.08 180) (length 2.54)
        (name "P1.3" (effects (font (size 1.27 1.27))))
        (number "43" (effects (font (size 1.27 1.27))))
      )
      (pin bidirectional line (at 7.62 -7.62 180) (length 2.54)
        (name "P1.4" (effects (font (size 1.27 1.27))))
        (number "44" (effects (font (size 1.27 1.27))))
      )
    )
    (symbol "AT89S51_3_1"
      (rectangle (start 5.08 -17.78) (end -8.89 5.08)
        (stroke (width 0) (type default) (color 0 0 0 0))
        (fill (type background))
      )
      (pin bidirectional line (at 7.62 2.54 180) (length 2.54)
        (name "P2.0_(A8)" (effects (font (size 1.27 1.27))))
        (number "18" (effects (font (size 1.27 1.27))))
      )
      (pin bidirectional line (at 7.62 0 180) (length 2.54)
        (name "P2.1_(A9)" (effects (font (size 1.27 1.27))))
        (number "19" (effects (font (size 1.27 1.27))))
      )
      (pin bidirectional line (at 7.62 -2.54 180) (length 2.54)
        (name "P2.2_(A10)" (effects (font (size 1.27 1.27))))
        (number "20" (effects (font (size 1.27 1.27))))
      )
      (pin bidirectional line (at 7.62 -5.08 180) (length 2.54)
        (name "P2.3_(A11)" (effects (font (size 1.27 1.27))))
        (number "21" (effects (font (size 1.27 1.27))))
      )
      (pin bidirectional line (at 7.62 -7.62 180) (length 2.54)
        (name "P2.4_(A12)" (effects (font (size 1.27 1.27))))
        (number "22" (effects (font (size 1.27 1.27))))
      )
      (pin bidirectional line (at 7.62 -10.16 180) (length 2.54)
        (name "P2.5_(A13)" (effects (font (size 1.27 1.27))))
        (number "23" (effects (font (size 1.27 1.27))))
      )
      (pin bidirectional line (at 7.62 -12.7 180) (length 2.54)
        (name "P2.6_(A14)" (effects (font (size 1.27 1.27))))
        (number "24" (effects (font (size 1.27 1.27))))
      )
      (pin bidirectional line (at 7.62 -15.24 180) (length 2.54)
        (name "P2.7_(A15)" (effects (font (size 1.27 1.27))))
        (number "25" (effects (font (size 1.27 1.27))))
      )
    )
    (symbol "AT89S51_4_1"
      (rectangle (start 3.81 5.08) (end -10.16 -17.78)
        (stroke (width 0) (type default) (color 0 0 0 0))
        (fill (type background))
      )
      (pin bidirectional line (at 6.35 -7.62 180) (length 2.54)
        (name "P3.4_(T0)" (effects (font (size 1.27 1.27))))
        (number "10" (effects (font (size 1.27 1.27))))
      )
      (pin bidirectional line (at 6.35 -10.16 180) (length 2.54)
        (name "P3.5_(T1)" (effects (font (size 1.27 1.27))))
        (number "11" (effects (font (size 1.27 1.27))))
      )
      (pin bidirectional line (at 6.35 -12.7 180) (length 2.54)
        (name "P3.6_(~{WR})" (effects (font (size 1.27 1.27))))
        (number "12" (effects (font (size 1.27 1.27))))
      )
      (pin bidirectional line (at 6.35 -15.24 180) (length 2.54)
        (name "P3.7_(~{RD})" (effects (font (size 1.27 1.27))))
        (number "13" (effects (font (size 1.27 1.27))))
      )
      (pin bidirectional line (at 6.35 2.54 180) (length 2.54)
        (name "P3.0_(RXD)" (effects (font (size 1.27 1.27))))
        (number "5" (effects (font (size 1.27 1.27))))
      )
      (pin bidirectional line (at 6.35 0 180) (length 2.54)
        (name "P3.1_(TXD)" (effects (font (size 1.27 1.27))))
        (number "7" (effects (font (size 1.27 1.27))))
      )
      (pin bidirectional line (at 6.35 -2.54 180) (length 2.54)
        (name "P3.2_(~{INT0})" (effects (font (size 1.27 1.27))))
        (number "8" (effects (font (size 1.27 1.27))))
      )
      (pin bidirectional line (at 6.35 -5.08 180) (length 2.54)
        (name "P3.3_(~{INT1})" (effects (font (size 1.27 1.27))))
        (number "9" (effects (font (size 1.27 1.27))))
      )
    )
    (symbol "AT89S51_5_1"
      (rectangle (start -8.89 5.08) (end 8.89 -10.16)
        (stroke (width 0) (type default) (color 0 0 0 0))
        (fill (type background))
      )
      (pin bidirectional line (at -11.43 2.54 0) (length 2.54)
        (name "XTAL2" (effects (font (size 1.27 1.27))))
        (number "14" (effects (font (size 1.27 1.27))))
      )
      (pin bidirectional line (at -11.43 -7.62 0) (length 2.54)
        (name "XTAL1" (effects (font (size 1.27 1.27))))
        (number "15" (effects (font (size 1.27 1.27))))
      )
      (pin bidirectional line (at 11.43 2.54 180) (length 2.54)
        (name "~{PSEN}" (effects (font (size 1.27 1.27))))
        (number "26" (effects (font (size 1.27 1.27))))
      )
      (pin bidirectional line (at 11.43 0 180) (length 2.54)
        (name "ALE/~{PROG}" (effects (font (size 1.27 1.27))))
        (number "27" (effects (font (size 1.27 1.27))))
      )
      (pin bidirectional line (at 11.43 -2.54 180) (length 2.54)
        (name "~{EA}/VPP" (effects (font (size 1.27 1.27))))
        (number "29" (effects (font (size 1.27 1.27))))
      )
    )
    (symbol "AT89S51_6_1"
      (rectangle (start -5.08 5.08) (end 5.08 -8.89)
        (stroke (width 0) (type default) (color 0 0 0 0))
        (fill (type background))
      )
      (pin power_in line (at 7.62 -3.81 180) (length 2.54)
        (name "GND" (effects (font (size 1.27 1.27))))
        (number "16" (effects (font (size 1.27 1.27))))
      )
      (pin power_in line (at 7.62 -6.35 180) (length 2.54)
        (name "GND" (effects (font (size 1.27 1.27))))
        (number "17" (effects (font (size 1.27 1.27))))
      )
      (pin no_connect line (at -7.62 0 0) (length 2.54) hide
        (name "N.C." (effects (font (size 1.27 1.27))))
        (number "28" (effects (font (size 1.27 1.27))))
      )
      (pin power_in line (at 7.62 2.54 180) (length 2.54)
        (name "VCC" (effects (font (size 1.27 1.27))))
        (number "38" (effects (font (size 1.27 1.27))))
      )
      (pin no_connect line (at -7.62 -2.54 0) (length 2.54) hide
        (name "N.C." (effects (font (size 1.27 1.27))))
        (number "39" (effects (font (size 1.27 1.27))))
      )
      (pin bidirectional line (at 7.62 0 180) (length 2.54)
        (name "RST" (effects (font (size 1.27 1.27))))
        (number "4" (effects (font (size 1.27 1.27))))
      )
      (pin no_connect line (at -7.62 2.54 0) (length 2.54) hide
        (name "N.C." (effects (font (size 1.27 1.27))))
        (number "6" (effects (font (size 1.27 1.27))))
      )
    )
  )
  (symbol "K32L2A41VLL1A" (in_bom yes) (on_board yes)
    (property "Reference" "U" (id 0) (at -7.62 3.81 0)
      (effects (font (size 1.27 1.27)))
    )
    (property "Value" "K32L2A41VLL1A" (id 1) (at -1.27 1.27 0)
      (effects (font (size 1.27 1.27)))
    )
    (property "Footprint" "" (id 2) (at 1.27 1.27 0)
      (effects (font (size 1.27 1.27)) hide)
    )
    (property "Datasheet" "" (id 3) (at 1.27 1.27 0)
      (effects (font (size 1.27 1.27)) hide)
    )
    (property "ki_locked" "" (id 4) (at 0 0 0)
      (effects (font (size 1.27 1.27)))
    )
    (symbol "K32L2A41VLL1A_1_1"
      (rectangle (start 8.89 0) (end -10.16 -46.99)
        (stroke (width 0) (type default) (color 0 0 0 0))
        (fill (type background))
      )
      (pin bidirectional line (at 11.43 -3.81 180) (length 2.54)
        (name "PTA0" (effects (font (size 1.27 1.27))))
        (number "34" (effects (font (size 1.27 1.27))))
      )
      (pin bidirectional line (at 11.43 -6.35 180) (length 2.54)
        (name "PTA1" (effects (font (size 1.27 1.27))))
        (number "35" (effects (font (size 1.27 1.27))))
      )
      (pin bidirectional line (at 11.43 -8.89 180) (length 2.54)
        (name "PTA2" (effects (font (size 1.27 1.27))))
        (number "36" (effects (font (size 1.27 1.27))))
      )
      (pin bidirectional line (at 11.43 -11.43 180) (length 2.54)
        (name "PTA3" (effects (font (size 1.27 1.27))))
        (number "37" (effects (font (size 1.27 1.27))))
      )
      (pin bidirectional line (at 11.43 -13.97 180) (length 2.54)
        (name "PTA4/LLWU_P3" (effects (font (size 1.27 1.27))))
        (number "38" (effects (font (size 1.27 1.27))))
      )
      (pin bidirectional line (at 11.43 -16.51 180) (length 2.54)
        (name "PTA5" (effects (font (size 1.27 1.27))))
        (number "39" (effects (font (size 1.27 1.27))))
      )
      (pin bidirectional line (at 11.43 -19.05 180) (length 2.54)
        (name "PTA6" (effects (font (size 1.27 1.27))))
        (number "40" (effects (font (size 1.27 1.27))))
      )
      (pin bidirectional line (at 11.43 -21.59 180) (length 2.54)
        (name "PTA7" (effects (font (size 1.27 1.27))))
        (number "41" (effects (font (size 1.27 1.27))))
      )
      (pin bidirectional line (at 11.43 -24.13 180) (length 2.54)
        (name "PTA12" (effects (font (size 1.27 1.27))))
        (number "42" (effects (font (size 1.27 1.27))))
      )
      (pin bidirectional line (at 11.43 -26.67 180) (length 2.54)
        (name "PTA13/LLWU_P4" (effects (font (size 1.27 1.27))))
        (number "43" (effects (font (size 1.27 1.27))))
      )
      (pin bidirectional line (at 11.43 -29.21 180) (length 2.54)
        (name "PTA14" (effects (font (size 1.27 1.27))))
        (number "44" (effects (font (size 1.27 1.27))))
      )
      (pin bidirectional line (at 11.43 -31.75 180) (length 2.54)
        (name "PTA15" (effects (font (size 1.27 1.27))))
        (number "45" (effects (font (size 1.27 1.27))))
      )
      (pin bidirectional line (at 11.43 -34.29 180) (length 2.54)
        (name "PTA16" (effects (font (size 1.27 1.27))))
        (number "46" (effects (font (size 1.27 1.27))))
      )
      (pin bidirectional line (at 11.43 -36.83 180) (length 2.54)
        (name "PTA17" (effects (font (size 1.27 1.27))))
        (number "47" (effects (font (size 1.27 1.27))))
      )
      (pin bidirectional line (at 11.43 -39.37 180) (length 2.54)
        (name "PTA18" (effects (font (size 1.27 1.27))))
        (number "50" (effects (font (size 1.27 1.27))))
      )
      (pin bidirectional line (at 11.43 -41.91 180) (length 2.54)
        (name "PTA19" (effects (font (size 1.27 1.27))))
        (number "51" (effects (font (size 1.27 1.27))))
      )
      (pin bidirectional line (at 11.43 -44.45 180) (length 2.54)
        (name "PTA20" (effects (font (size 1.27 1.27))))
        (number "52" (effects (font (size 1.27 1.27))))
      )
    )
    (symbol "K32L2A41VLL1A_2_1"
      (rectangle (start 6.35 -46.99) (end -11.43 0)
        (stroke (width 0) (type default) (color 0 0 0 0))
        (fill (type background))
      )
      (pin bidirectional line (at 8.89 -3.81 180) (length 2.54)
        (name "PTB0/LLWU_P5" (effects (font (size 1.27 1.27))))
        (number "53" (effects (font (size 1.27 1.27))))
      )
      (pin bidirectional line (at 8.89 -6.35 180) (length 2.54)
        (name "PTB1" (effects (font (size 1.27 1.27))))
        (number "54" (effects (font (size 1.27 1.27))))
      )
      (pin bidirectional line (at 8.89 -8.89 180) (length 2.54)
        (name "PTB2" (effects (font (size 1.27 1.27))))
        (number "55" (effects (font (size 1.27 1.27))))
      )
      (pin bidirectional line (at 8.89 -11.43 180) (length 2.54)
        (name "PTB3" (effects (font (size 1.27 1.27))))
        (number "56" (effects (font (size 1.27 1.27))))
      )
      (pin bidirectional line (at 8.89 -13.97 180) (length 2.54)
        (name "PTB7" (effects (font (size 1.27 1.27))))
        (number "57" (effects (font (size 1.27 1.27))))
      )
      (pin bidirectional line (at 8.89 -16.51 180) (length 2.54)
        (name "PTB8" (effects (font (size 1.27 1.27))))
        (number "58" (effects (font (size 1.27 1.27))))
      )
      (pin bidirectional line (at 8.89 -19.05 180) (length 2.54)
        (name "PTB9" (effects (font (size 1.27 1.27))))
        (number "59" (effects (font (size 1.27 1.27))))
      )
      (pin bidirectional line (at 8.89 -21.59 180) (length 2.54)
        (name "PTB10" (effects (font (size 1.27 1.27))))
        (number "60" (effects (font (size 1.27 1.27))))
      )
      (pin bidirectional line (at 8.89 -24.13 180) (length 2.54)
        (name "PTB11" (effects (font (size 1.27 1.27))))
        (number "61" (effects (font (size 1.27 1.27))))
      )
      (pin bidirectional line (at 8.89 -26.67 180) (length 2.54)
        (name "PTB16" (effects (font (size 1.27 1.27))))
        (number "62" (effects (font (size 1.27 1.27))))
      )
      (pin bidirectional line (at 8.89 -29.21 180) (length 2.54)
        (name "PTB17" (effects (font (size 1.27 1.27))))
        (number "63" (effects (font (size 1.27 1.27))))
      )
      (pin bidirectional line (at 8.89 -31.75 180) (length 2.54)
        (name "PTB18" (effects (font (size 1.27 1.27))))
        (number "64" (effects (font (size 1.27 1.27))))
      )
      (pin bidirectional line (at 8.89 -34.29 180) (length 2.54)
        (name "PTB19" (effects (font (size 1.27 1.27))))
        (number "65" (effects (font (size 1.27 1.27))))
      )
      (pin bidirectional line (at 8.89 -36.83 180) (length 2.54)
        (name "PTB20" (effects (font (size 1.27 1.27))))
        (number "66" (effects (font (size 1.27 1.27))))
      )
      (pin bidirectional line (at 8.89 -39.37 180) (length 2.54)
        (name "PTB21" (effects (font (size 1.27 1.27))))
        (number "67" (effects (font (size 1.27 1.27))))
      )
      (pin bidirectional line (at 8.89 -41.91 180) (length 2.54)
        (name "PTB22" (effects (font (size 1.27 1.27))))
        (number "68" (effects (font (size 1.27 1.27))))
      )
      (pin bidirectional line (at 8.89 -44.45 180) (length 2.54)
        (name "PTB23" (effects (font (size 1.27 1.27))))
        (number "69" (effects (font (size 1.27 1.27))))
      )
    )
    (symbol "K32L2A41VLL1A_3_1"
      (rectangle (start -12.7 0) (end 8.89 -53.34)
        (stroke (width 0) (type default) (color 0 0 0 0))
        (fill (type background))
      )
      (pin bidirectional line (at 11.43 -3.81 180) (length 2.54)
        (name "PTC0" (effects (font (size 1.27 1.27))))
        (number "70" (effects (font (size 1.27 1.27))))
      )
      (pin bidirectional line (at 11.43 -6.35 180) (length 2.54)
        (name "PTC1/LLWU_P6" (effects (font (size 1.27 1.27))))
        (number "71" (effects (font (size 1.27 1.27))))
      )
      (pin bidirectional line (at 11.43 -8.89 180) (length 2.54)
        (name "PTC2" (effects (font (size 1.27 1.27))))
        (number "72" (effects (font (size 1.27 1.27))))
      )
      (pin bidirectional line (at 11.43 -11.43 180) (length 2.54)
        (name "PTC3/LLWU_P7" (effects (font (size 1.27 1.27))))
        (number "73" (effects (font (size 1.27 1.27))))
      )
      (pin bidirectional line (at 11.43 -13.97 180) (length 2.54)
        (name "PTC4/LLWU_P8" (effects (font (size 1.27 1.27))))
        (number "76" (effects (font (size 1.27 1.27))))
      )
      (pin bidirectional line (at 11.43 -16.51 180) (length 2.54)
        (name "PTC5/LLWU_P9" (effects (font (size 1.27 1.27))))
        (number "77" (effects (font (size 1.27 1.27))))
      )
      (pin bidirectional line (at 11.43 -19.05 180) (length 2.54)
        (name "PTC6/LLWU_P10" (effects (font (size 1.27 1.27))))
        (number "78" (effects (font (size 1.27 1.27))))
      )
      (pin bidirectional line (at 11.43 -21.59 180) (length 2.54)
        (name "PTC7" (effects (font (size 1.27 1.27))))
        (number "79" (effects (font (size 1.27 1.27))))
      )
      (pin bidirectional line (at 11.43 -24.13 180) (length 2.54)
        (name "PTC8" (effects (font (size 1.27 1.27))))
        (number "80" (effects (font (size 1.27 1.27))))
      )
      (pin bidirectional line (at 11.43 -26.67 180) (length 2.54)
        (name "PTC9" (effects (font (size 1.27 1.27))))
        (number "81" (effects (font (size 1.27 1.27))))
      )
      (pin bidirectional line (at 11.43 -29.21 180) (length 2.54)
        (name "PTC10" (effects (font (size 1.27 1.27))))
        (number "82" (effects (font (size 1.27 1.27))))
      )
      (pin bidirectional line (at 11.43 -31.75 180) (length 2.54)
        (name "PTC11/LLWU_P11" (effects (font (size 1.27 1.27))))
        (number "83" (effects (font (size 1.27 1.27))))
      )
      (pin bidirectional line (at 11.43 -34.29 180) (length 2.54)
        (name "PTC12" (effects (font (size 1.27 1.27))))
        (number "84" (effects (font (size 1.27 1.27))))
      )
      (pin bidirectional line (at 11.43 -36.83 180) (length 2.54)
        (name "PTC13" (effects (font (size 1.27 1.27))))
        (number "85" (effects (font (size 1.27 1.27))))
      )
      (pin bidirectional line (at 11.43 -39.37 180) (length 2.54)
        (name "PTC14" (effects (font (size 1.27 1.27))))
        (number "86" (effects (font (size 1.27 1.27))))
      )
      (pin bidirectional line (at 11.43 -41.91 180) (length 2.54)
        (name "PTC15" (effects (font (size 1.27 1.27))))
        (number "87" (effects (font (size 1.27 1.27))))
      )
      (pin bidirectional line (at 11.43 -44.45 180) (length 2.54)
        (name "PTC16" (effects (font (size 1.27 1.27))))
        (number "90" (effects (font (size 1.27 1.27))))
      )
      (pin bidirectional line (at 11.43 -46.99 180) (length 2.54)
        (name "PTC17" (effects (font (size 1.27 1.27))))
        (number "91" (effects (font (size 1.27 1.27))))
      )
      (pin bidirectional line (at 11.43 -49.53 180) (length 2.54)
        (name "PTC18" (effects (font (size 1.27 1.27))))
        (number "92" (effects (font (size 1.27 1.27))))
      )
    )
    (symbol "K32L2A41VLL1A_4_1"
      (rectangle (start 6.35 -24.13) (end -11.43 0)
        (stroke (width 0) (type default) (color 0 0 0 0))
        (fill (type background))
      )
      (pin bidirectional line (at 10.16 -21.59 180) (length 3.81)
        (name "PTD7" (effects (font (size 1.27 1.27))))
        (number "100" (effects (font (size 1.27 1.27))))
      )
      (pin bidirectional line (at 8.89 -3.81 180) (length 2.54)
        (name "PTD0/LLWU_P12" (effects (font (size 1.27 1.27))))
        (number "93" (effects (font (size 1.27 1.27))))
      )
      (pin bidirectional line (at 8.89 -6.35 180) (length 2.54)
        (name "PTD1" (effects (font (size 1.27 1.27))))
        (number "94" (effects (font (size 1.27 1.27))))
      )
      (pin bidirectional line (at 8.89 -8.89 180) (length 2.54)
        (name "PTD2/LLWU_P13" (effects (font (size 1.27 1.27))))
        (number "95" (effects (font (size 1.27 1.27))))
      )
      (pin bidirectional line (at 8.89 -11.43 180) (length 2.54)
        (name "PTD3" (effects (font (size 1.27 1.27))))
        (number "96" (effects (font (size 1.27 1.27))))
      )
      (pin bidirectional line (at 8.89 -13.97 180) (length 2.54)
        (name "PTD4/LLWU_P14" (effects (font (size 1.27 1.27))))
        (number "97" (effects (font (size 1.27 1.27))))
      )
      (pin bidirectional line (at 8.89 -16.51 180) (length 2.54)
        (name "PTD5" (effects (font (size 1.27 1.27))))
        (number "98" (effects (font (size 1.27 1.27))))
      )
      (pin bidirectional line (at 8.89 -19.05 180) (length 2.54)
        (name "PTD6/LLWU_P15" (effects (font (size 1.27 1.27))))
        (number "99" (effects (font (size 1.27 1.27))))
      )
    )
    (symbol "K32L2A41VLL1A_5_1"
      (rectangle (start 8.89 0) (end -12.7 -58.42)
        (stroke (width 0) (type default) (color 0 0 0 0))
        (fill (type background))
      )
      (pin bidirectional line (at 11.43 -3.81 180) (length 2.54)
        (name "PTE0" (effects (font (size 1.27 1.27))))
        (number "1" (effects (font (size 1.27 1.27))))
      )
      (pin bidirectional line (at 11.43 -21.59 180) (length 2.54)
        (name "PTE16" (effects (font (size 1.27 1.27))))
        (number "14" (effects (font (size 1.27 1.27))))
      )
      (pin bidirectional line (at 11.43 -24.13 180) (length 2.54)
        (name "PTE17/LLWU_P19" (effects (font (size 1.27 1.27))))
        (number "15" (effects (font (size 1.27 1.27))))
      )
      (pin bidirectional line (at 11.43 -26.67 180) (length 2.54)
        (name "PTE18/LLWU_P20" (effects (font (size 1.27 1.27))))
        (number "16" (effects (font (size 1.27 1.27))))
      )
      (pin bidirectional line (at 11.43 -29.21 180) (length 2.54)
        (name "PTE19" (effects (font (size 1.27 1.27))))
        (number "17" (effects (font (size 1.27 1.27))))
      )
      (pin bidirectional line (at 11.43 -31.75 180) (length 2.54)
        (name "PTE20" (effects (font (size 1.27 1.27))))
        (number "18" (effects (font (size 1.27 1.27))))
      )
      (pin bidirectional line (at 11.43 -34.29 180) (length 2.54)
        (name "PTE21" (effects (font (size 1.27 1.27))))
        (number "19" (effects (font (size 1.27 1.27))))
      )
      (pin bidirectional line (at 11.43 -6.35 180) (length 2.54)
        (name "PTE1/LLWU_P0" (effects (font (size 1.27 1.27))))
        (number "2" (effects (font (size 1.27 1.27))))
      )
      (pin bidirectional line (at 11.43 -36.83 180) (length 2.54)
        (name "PTE22" (effects (font (size 1.27 1.27))))
        (number "20" (effects (font (size 1.27 1.27))))
      )
      (pin bidirectional line (at 11.43 -39.37 180) (length 2.54)
        (name "PTE23" (effects (font (size 1.27 1.27))))
        (number "21" (effects (font (size 1.27 1.27))))
      )
      (pin bidirectional line (at 11.43 -41.91 180) (length 2.54)
        (name "PTE29" (effects (font (size 1.27 1.27))))
        (number "26" (effects (font (size 1.27 1.27))))
      )
      (pin bidirectional line (at 11.43 -44.45 180) (length 2.54)
        (name "PTE30" (effects (font (size 1.27 1.27))))
        (number "27" (effects (font (size 1.27 1.27))))
      )
      (pin bidirectional line (at 11.43 -46.99 180) (length 2.54)
        (name "PTE31" (effects (font (size 1.27 1.27))))
        (number "28" (effects (font (size 1.27 1.27))))
      )
      (pin bidirectional line (at 11.43 -8.89 180) (length 2.54)
        (name "PTE2/LLWU_P1" (effects (font (size 1.27 1.27))))
        (number "3" (effects (font (size 1.27 1.27))))
      )
      (pin bidirectional line (at 11.43 -49.53 180) (length 2.54)
        (name "PTE24" (effects (font (size 1.27 1.27))))
        (number "31" (effects (font (size 1.27 1.27))))
      )
      (pin bidirectional line (at 11.43 -52.07 180) (length 2.54)
        (name "PTE25/LLWU_P21" (effects (font (size 1.27 1.27))))
        (number "32" (effects (font (size 1.27 1.27))))
      )
      (pin bidirectional line (at 11.43 -54.61 180) (length 2.54)
        (name "PTE26" (effects (font (size 1.27 1.27))))
        (number "33" (effects (font (size 1.27 1.27))))
      )
      (pin bidirectional line (at 11.43 -11.43 180) (length 2.54)
        (name "PTE3" (effects (font (size 1.27 1.27))))
        (number "4" (effects (font (size 1.27 1.27))))
      )
      (pin bidirectional line (at 11.43 -13.97 180) (length 2.54)
        (name "PTE4/LLWU_P2" (effects (font (size 1.27 1.27))))
        (number "5" (effects (font (size 1.27 1.27))))
      )
      (pin bidirectional line (at 11.43 -16.51 180) (length 2.54)
        (name "PTE5" (effects (font (size 1.27 1.27))))
        (number "6" (effects (font (size 1.27 1.27))))
      )
      (pin bidirectional line (at 11.43 -19.05 180) (length 2.54)
        (name "PTE6/LLWU_P16" (effects (font (size 1.27 1.27))))
        (number "7" (effects (font (size 1.27 1.27))))
      )
    )
    (symbol "K32L2A41VLL1A_6_1"
      (rectangle (start 10.16 0) (end -12.7 -34.29)
        (stroke (width 0) (type default) (color 0 0 0 0))
        (fill (type background))
      )
      (pin bidirectional line (at -15.24 -3.81 0) (length 2.54)
        (name "USB0_DP" (effects (font (size 1.27 1.27))))
        (number "10" (effects (font (size 1.27 1.27))))
      )
      (pin bidirectional line (at -15.24 -6.35 0) (length 2.54)
        (name "USB0_DM" (effects (font (size 1.27 1.27))))
        (number "11" (effects (font (size 1.27 1.27))))
      )
      (pin bidirectional line (at -15.24 -11.43 0) (length 2.54)
        (name "VOUT33" (effects (font (size 1.27 1.27))))
        (number "12" (effects (font (size 1.27 1.27))))
      )
      (pin bidirectional line (at -15.24 -13.97 0) (length 2.54)
        (name "VREGIN" (effects (font (size 1.27 1.27))))
        (number "13" (effects (font (size 1.27 1.27))))
      )
      (pin bidirectional line (at 12.7 -16.51 180) (length 2.54)
        (name "VDDA" (effects (font (size 1.27 1.27))))
        (number "22" (effects (font (size 1.27 1.27))))
      )
      (pin bidirectional line (at 12.7 -24.13 180) (length 2.54)
        (name "VREFH/VREF_OUT" (effects (font (size 1.27 1.27))))
        (number "23" (effects (font (size 1.27 1.27))))
      )
      (pin bidirectional line (at 12.7 -21.59 180) (length 2.54)
        (name "VREFL" (effects (font (size 1.27 1.27))))
        (number "24" (effects (font (size 1.27 1.27))))
      )
      (pin bidirectional line (at -15.24 -31.75 0) (length 2.54)
        (name "VSSA" (effects (font (size 1.27 1.27))))
        (number "25" (effects (font (size 1.27 1.27))))
      )
      (pin bidirectional line (at -15.24 -21.59 0) (length 2.54)
        (name "VSS" (effects (font (size 1.27 1.27))))
        (number "29" (effects (font (size 1.27 1.27))))
      )
      (pin bidirectional line (at 12.7 -6.35 180) (length 2.54)
        (name "VDD" (effects (font (size 1.27 1.27))))
        (number "30" (effects (font (size 1.27 1.27))))
      )
      (pin bidirectional line (at 12.7 -8.89 180) (length 2.54)
        (name "VDD" (effects (font (size 1.27 1.27))))
        (number "48" (effects (font (size 1.27 1.27))))
      )
      (pin bidirectional line (at -15.24 -24.13 0) (length 2.54)
        (name "VSS" (effects (font (size 1.27 1.27))))
        (number "49" (effects (font (size 1.27 1.27))))
      )
      (pin bidirectional line (at -15.24 -26.67 0) (length 2.54)
        (name "VSS" (effects (font (size 1.27 1.27))))
        (number "74" (effects (font (size 1.27 1.27))))
      )
      (pin bidirectional line (at 12.7 -11.43 180) (length 2.54)
        (name "VDD" (effects (font (size 1.27 1.27))))
        (number "75" (effects (font (size 1.27 1.27))))
      )
      (pin bidirectional line (at 12.7 -3.81 180) (length 2.54)
        (name "VDD" (effects (font (size 1.27 1.27))))
        (number "8" (effects (font (size 1.27 1.27))))
      )
      (pin bidirectional line (at -15.24 -29.21 0) (length 2.54)
        (name "VSS" (effects (font (size 1.27 1.27))))
        (number "88" (effects (font (size 1.27 1.27))))
      )
      (pin bidirectional line (at 12.7 -13.97 180) (length 2.54)
        (name "VDD" (effects (font (size 1.27 1.27))))
        (number "89" (effects (font (size 1.27 1.27))))
      )
      (pin bidirectional line (at -15.24 -19.05 0) (length 2.54)
        (name "VSS" (effects (font (size 1.27 1.27))))
        (number "9" (effects (font (size 1.27 1.27))))
      )
    )
  )
)
